Sydney Traugott - Understanding the Factors of Mental Health
…
There are 2 genders in this data set with male being the majority number.

# A tibble: 5 × 2
# Groups:   Occupation [5]
  Occupation     n
  <chr>      <int>
1 Business   50149
2 Corporate  61229
3 Housewife  66351
4 Others     52841
5 Student    61794

There are 5 different occupations.

# A tibble: 35 × 2
# Groups:   Country [35]
   Country                    n
   <chr>                  <int>
 1 Australia               6026
 2 Belgium                  824
 3 Bosnia and Herzegovina   390
 4 Brazil                  2340
 5 Canada                 18726
 6 Colombia                 390
 7 Costa Rica               390
 8 Croatia                  390
 9 Czech Republic           390
10 Denmark                  780
# ℹ 25 more rows
…
